…
## 5) Calculate movement metrics (row-level)

``` r
gps_movement <- grz_calculate_movement(gps_clean, verbose = FALSE)

movement_view <- gps_movement %>%
  as_tibble() %>%
  select(sensor_id, datetime, step_m, speed_mps, turn_rad)

movement_view
#> # A tibble: 1,294 × 5
#>    sensor_id datetime            step_m speed_mps turn_rad
#>    <chr>     <dttm>               <dbl>     <dbl>    <dbl>
#>  1 A01       2024-05-01 00:00:00  NA     NA        NA     
#>  2 A01       2024-05-01 00:10:00   4.31   0.00718  NA     
#>  3 A01       2024-05-01 00:20:00   2.80   0.00466   0.166 
#>  4 A01       2024-05-01 00:30:00   4.18   0.00697   0.739 
#>  5 A01       2024-05-01 00:40:00   8.44   0.0141    0.253 
#>  6 A01       2024-05-01 00:50:00  11.3    0.0189    0.0933
#>  7 A01       2024-05-01 01:00:00  12.0    0.0200    0.0903
#>  8 A01       2024-05-01 01:10:00  10.5    0.0174    0.147 
#>  9 A01       2024-05-01 01:20:00   7.59   0.0127    0.281 
#> 10 A01       2024-05-01 01:30:00   5.00   0.00834   0.272 
#> # ℹ 1,284 more rows
…
n30_col <- grep("^n_within_\\s*30m$", names(gps_social), value = TRUE)
if (length(n30_col) == 0L) {
  stop("Expected a 30 m neighbour count column after grz_calculate_social().")
}

gps_social_tbl <- gps_social %>%
  as_tibble() %>%
  mutate(n_within_30m = .data[[n30_col[[1]]]])

social_view <- gps_social_tbl %>%
  select(sensor_id, datetime, nearest_neighbor_m, n_within_30m, mean_dist_to_others_m)

social_view
#> # A tibble: 1,294 × 5
#>    sensor_id datetime            nearest_neighbor_m n_within_30m
#>    <chr>     <dttm>                           <dbl>        <int>
#>  1 A01       2024-05-01 00:00:00               709.            0
#>  2 A01       2024-05-01 00:10:00               710.            0
#>  3 A01       2024-05-01 00:20:00               708.            0
#>  4 A01       2024-05-01 00:30:00               703.            0
#>  5 A01       2024-05-01 00:40:00               694.            0
#>  6 A01       2024-05-01 00:50:00               684.            0
#>  7 A01       2024-05-01 01:00:00               677.            0
#>  8 A01       2024-05-01 01:10:00               677.            0
#>  9 A01       2024-05-01 01:20:00               684.            0
#> 10 A01       2024-05-01 01:30:00               698.            0
#> # ℹ 1,284 more rows
#> # ℹ 1 more variable: mean_dist_to_others_m <dbl>
…
