GPS 201: Activity Classification and Validation • grazer
…
grz_classify_activity_consensus() combines HMM and
spatial signals into one final state column.

gps_states <- grz_classify_activity_consensus(
  data = gps,
  groups = "sensor_id",
  verbose = FALSE
)

state_view <- gps_states %>%
  as_tibble() %>%
  select(sensor_id, datetime, lon, lat, activity_state_consensus)

state_view
#> # A tibble: 802 × 5
#>    sensor_id datetime              lon   lat activity_state_consensus
#>    <chr>     <dttm>              <dbl> <dbl> <chr>                   
#>  1 A01       2024-06-01 00:00:00  132. -14.5 active                  
#>  2 A01       2024-06-01 00:10:00  132. -14.5 active                  
#>  3 A01       2024-06-01 00:20:00  132. -14.5 active                  
#>  4 A01       2024-06-01 00:30:00  132. -14.5 active                  
#>  5 A01       2024-06-01 00:40:00  132. -14.5 active                  
#>  6 A01       2024-06-01 00:50:00  132. -14.5 active                  
#>  7 A01       2024-06-01 01:00:00  132. -14.5 active                  
#>  8 A01       2024-06-01 01:10:00  132. -14.5 active                  
#>  9 A01       2024-06-01 01:20:00  132. -14.5 active                  
#> 10 A01       2024-06-01 01:30:00  132. -14.5 inactive                
#> # ℹ 792 more rows
…
labelled$label[flip_idx] <- ifelse(
  labelled$label[flip_idx] == "active",
  "inactive",
  "active"
)

label_view <- labelled %>%
  as_tibble() %>%
  select(sensor_id, datetime, activity_state_consensus, label, inactive_score_consensus)

label_view
#> # A tibble: 802 × 5
#>    sensor_id datetime            activity_state_consensus label   
#>    <chr>     <dttm>              <chr>                    <chr>   
#>  1 A01       2024-06-01 00:00:00 active                   active  
#>  2 A01       2024-06-01 00:10:00 active                   active  
#>  3 A01       2024-06-01 00:20:00 active                   active  
#>  4 A01       2024-06-01 00:30:00 active                   active  
#>  5 A01       2024-06-01 00:40:00 active                   inactive
#>  6 A01       2024-06-01 00:50:00 active                   active  
#>  7 A01       2024-06-01 01:00:00 active                   active  
#>  8 A01       2024-06-01 01:10:00 active                   active  
#>  9 A01       2024-06-01 01:20:00 active                   active  
#> 10 A01       2024-06-01 01:30:00 inactive                 inactive
#> # ℹ 792 more rows
#> # ℹ 1 more variable: inactive_score_consensus <dbl>
…
