GPS 101: Core Workflow • grazer
…
Pitfall: aggressive denoising in coarse sampling intervals.

Check: compare pre/post row counts by animal and day.

5) Calculate movement metrics (row-level)

gps_movement <- grz_calculate_movement(gps_clean, verbose = FALSE)

movement_view <- gps_movement %>%
  as_tibble() %>%
  select(sensor_id, datetime, step_m, speed_mps, turn_rad)

movement_view
#> # A tibble: 1,186 × 5
#>    sensor_id datetime            step_m speed_mps turn_rad
#>    <chr>     <dttm>               <dbl>     <dbl>    <dbl>
#>  1 A01       2024-05-01 00:00:00   NA     NA        NA    
#>  2 A01       2024-05-01 00:10:00   11.5    0.0192   NA    
#>  3 A01       2024-05-01 00:20:00   18.1    0.0302    2.00 
#>  4 A01       2024-05-01 00:30:00   17.1    0.0284    2.58 
#>  5 A01       2024-05-01 00:40:00   25.5    0.0425    2.66 
#>  6 A01       2024-05-01 00:50:00   25.8    0.0430    1.82 
#>  7 A01       2024-05-01 01:00:00   12.1    0.0202    0.623
#>  8 A01       2024-05-01 01:20:00   19.8    0.0165    0.532
#>  9 A01       2024-05-01 01:40:00   12.3    0.0103    1.74 
#> 10 A01       2024-05-01 01:50:00   15.6    0.0259    2.21 
#> # ℹ 1,176 more rows
…
n30_col <- grep("^n_within_\\s*30m$", names(gps_social), value = TRUE)
if (length(n30_col) == 0L) {
  stop("Expected a 30 m neighbour count column after grz_calculate_social().")
}

gps_social_tbl <- gps_social %>%
  as_tibble() %>%
  mutate(n_within_30m = .data[[n30_col[[1]]]])

social_view <- gps_social_tbl %>%
  select(sensor_id, datetime, nearest_neighbor_m, n_within_30m, mean_dist_to_others_m)

social_view
#> # A tibble: 1,186 × 5
#>    sensor_id datetime            nearest_neighbor_m n_within_30m
#>    <chr>     <dttm>                           <dbl>        <int>
#>  1 A01       2024-05-01 00:00:00               706.            0
#>  2 A01       2024-05-01 00:10:00               711.            0
#>  3 A01       2024-05-01 00:20:00               711.            0
#>  4 A01       2024-05-01 00:30:00               708.            0
#>  5 A01       2024-05-01 00:40:00               698.            0
#>  6 A01       2024-05-01 00:50:00               672.            0
#>  7 A01       2024-05-01 01:00:00               947.            0
#>  8 A01       2024-05-01 01:20:00               678.            0
#>  9 A01       2024-05-01 01:40:00               736.            0
#> 10 A01       2024-05-01 01:50:00               959.            0
#> # ℹ 1,176 more rows
#> # ℹ 1 more variable: mean_dist_to_others_m <dbl>
…
